Zillow Home Values
…
* HSE_FRAC_NBR - House Number Fraction

* HSE_DIR_CD - House Direction Code. The street direction * STR_NM - Street Name

* STR_SFX_CD - Street Suffix

* STR_SFX_DIR_CD - Street Suffix Direction

* UNIT_RANGE - Unit Range

* ZIP_CD - Zip Code

Below is the start of the data we are provided by the City of Los Angeles:

## # A tibble: 1,003,783 x 8
##    HSE_NBR HSE_FRAC_NBR HSE_DIR_CD STR_NM STR_SFX_CD STR_SFX_DIR_CD UNIT_RANGE
##      <dbl> <chr>        <chr>      <chr>  <chr>      <chr>          <chr>     
##  1    1769 <NA>         N          IVAR   AVE        <NA>           <NA>      
##  2     260 <NA>         S          6TH    AVE        <NA>           <NA>      
##  3    8802 <NA>         S          BELFO~ AVE        <NA>           <NA>      
##  4    4610 <NA>         W          MAUBE~ AVE        <NA>           <NA>      
##  5    8802 1/2          S          BELFO~ AVE        <NA>           <NA>      
##  6    8320 <NA>         N          CHELS~ LANE       <NA>           <NA>      
##  7    2031 <NA>         N          CHERE~ AVE        <NA>           <NA>      
##  8    9039 <NA>         W          CRESTA DR         <NA>           <NA>      
##  9    5500 <NA>         S          FORTU~ ST         <NA>           <NA>      
## 10    5821 <NA>         N          YOLAN~ AVE        <NA>           <NA>      
## # ... with 1,003,773 more rows, and 1 more variable: ZIP_CD <dbl>
…
Our next step is to clean the address.sample into the format required by the Zillow API.

# clean up address and city/state/zip data to match format expected by zillow API
address.sample <- mutate(address.sample, clean.address = paste0(HSE_NBR, ' ', 
                                                      ifelse(!is.na(HSE_FRAC_NBR), 
                                                             HSE_FRAC_NBR, ''), ' ',
                                                      STR_NM, ' ', STR_SFX_CD, ' ',
                                                      ifelse(!is.na(STR_SFX_DIR_CD), 
                                                             STR_SFX_DIR_CD, ''))) %>%
                mutate(clean.citystatezip = paste('Los Angeles, CA', ZIP_CD)) %>% 
                select(clean.address, clean.citystatezip)

address.sample

## # A tibble: 5,000 x 2
##    clean.address              clean.citystatezip   
##    <chr>                      <chr>                
##  1 "4009  DON FELIPE DR "     Los Angeles, CA 90008
##  2 "600  ORME AVE "           Los Angeles, CA 90023
##  3 "11232  WOODLEY AVE "      Los Angeles, CA 91344
##  4 "1545  238TH ST "          Los Angeles, CA 90710
##  5 "7848  HINDRY AVE "        Los Angeles, CA 90045
##  6 "407  LA FAYETTE PARK PL " Los Angeles, CA 90026
##  7 "18765  STRATHERN ST "     Los Angeles, CA 91335
##  8 "12381  NUGENT DR "        Los Angeles, CA 91344
##  9 "830  105TH ST "           Los Angeles, CA 90044
## 10 "1919  5TH AVE "           Los Angeles, CA 90018
## # ... with 4,990 more rows
…
We will have to remove the record with theMultiFamily5Plus use.code. Then we check region.name.

home.data <- home.data[!home.data$use.code %in% 'MultiFamily5Plus', ]

home.data %>% group_by(region.name) %>%
  summarize(no_rows = length(region.name)) %>%
  arrange(no_rows)

## # A tibble: 112 x 2
##    region.name           no_rows
##    <fct>                   <int>
##  1 Beverly Hills Gateway       1
##  2 Canyon Country              1
##  3 Chinatown                   1
##  4 East Los Angeles            1
##  5 El Miradero                 1
##  6 Elysian Park                1
##  7 West Carson                 1
##  8 Ladera Heights              2
##  9 MacArthur Park              2
## 10 McLaughlin                  2
## # ... with 102 more rows
…
